%YAML 1.1
%TAG !u! tag:unity3d.com,2011:
--- !u!78 &1
TagManager:
  serializedVersion: 2
  tags:
  - Enemy
  - QuestionBlock
  - Block
  - Platform
  - Coin
  - Mario Fireball
  - Goal
  - Enemy/Piranha
  - Enemy/Bowser
  - Stone
  - Pipe
  layers:
  - Default
  - TransparentFX
  - Ignore Raycast
  - 
  - Water
  - UI
  - 
  - 
  - Player
  - Enemy
  - Coins
  - PipeEntry
  - Entry
  - Hole
  - Block
  - Backgtound
  - Fireball
  - 
  - 
  - 
  - 
  - 
  - 
  - 
  - 
  - 
  - 
  - 
  - 
  - 
  - 
  - 
  m_SortingLayers:
  - name: Default
    uniqueID: 0
    locked: 0
  - name: PipeEntry
    uniqueID: 4043627365
    locked: 0
  - name: Entry
    uniqueID: 2390352965
    locked: 0
  - name: Player
    uniqueID: 2091890329
    locked: 0
